OrgnizationName,ClientSegment,OrgnizationType,GovernmentDepartment,Profession,PhoneNumber,Address,FirstName,LastName
RegressionSet2_BushNurshing,Bush Nursing Hospital,Core Client,Department of Health,test,1234567890,Sydney ,Sushant,Das
RegressionSet2_MedicalReserchPP,Medical Research PP,,Department of Education and Training,test,1234567890,Sydney ,Sushant,Das
RegressionSet2_PublicHospital,Public Hospital,Core Client,Department of Transport,test,1234567890,Sydney ,Sushant,Das
RegressionSet2_SpecialistAgencie,Specialist Agencies,Fund,Department of Education and Training,test,1234567890,Sydney ,Sushant,Das
RegressionSet2_SpecialistAgenciesPP,Specialist Agencies PP,,Department of Education and Training,test,1234567890,Sydney ,Sushant,Das
RegressionSet2_BusinessAndIndustries1,Business and Industry,Stakeholder,Department of Education and Training,test,1234567890,Sydney ,Sushant,Das
RegressionSet2_RuralGP,Rural GP,,Department of Education and Training,test,1234567890,Sydney ,Sushant,Das
RegressionSet2_PCP,Primary Care Partnership,,Department of Transport,test,1234567890,Sydney ,Sushant,Das
RegressionSet2_CemetryTrusts,Cemetery trusts,,Department of Education and Training,test,1234567890,Sydney ,Sushant,Das
RegressionSet2_Education,Education,Section 25A,Department of Education and Training,test,1234567890,Sydney ,Sushant,Das
RegressionSet2_GovAndEconomy,Government & Economy,Core Client,Department of Education and Training,test,1234567890,Sydney ,Sushant,Das
RegressionSet2_EnviornmnetWater,Environment & Water,Core Client,"Department of Environment, Land, Water and Planning",,1234567890,Sydney ,Sushant,Das
RegressionSet2_CommunityServiceOrg,,,,,,,,
