OrgnizationName,ClientSegment,OrgnizationType,GovernmentDepartment,Profession,PhoneNumber,Address,FirstName,LastName
RegressionSet2_Ambulance,Ambulance,Core Client,Department of Premier and Cabinet,test,1234567890,Sydney ,Tester,Auto
RegressionSet2_BushNurshing,Bush Nursing Hospital,Core Client,Department of Health,test,1234567890,Sydney ,Tester,Auto
RegressionSet2_BusinessAndIndustries1,Business and Industry,Stakeholder,Department of Education and Training,test,1234567890,Sydney ,Tester,Auto
RegressionSet2_CemetryTrusts,Cemetery trusts,,Department of Education and Training,test,1234567890,Sydney ,Tester,Auto
RegressionSet2_CommnutiyHealthCare,Community Health Centre,Core Client,Department of Education and Training,test,1234567890,Sydney ,Tester,Auto
RegressionSet2_CommunityServiceOrg,Community Service Organisation,,Department of Health,test,1234567890,Sydney ,Tester,Auto
RegressionSet2_CSOPEdu,Community Service Organisation (Education),,Department of Education and Training,test,1234567890,Sydney ,Tester,Auto
RegressionSet2_DepartmentalDivision,Departmental Division,Core Client,Department of Justice and Community Safety,test,1234567890,Sydney ,Tester,Auto
RegressionSet2_Education,Education,Section 25A,Department of Education and Training,test,1234567890,Sydney ,Tester,Auto
RegressionSet2_EmergenciesSafety,Emergencies and Safety,Stakeholder,Department of Education and Training,test,1234567890,Sydney ,Tester,Auto
RegressionSet2_GovAndEconomy,Government & Economy,Core Client,Department of Education and Training,test,1234567890,Sydney ,Tester,Auto
RegressionSet2_HealthAndCommunity,Health and Community,Core Client,Department of Education and Training,test,1234567890,Sydney ,Tester,Auto
RegressionSet2_LawAndJustice,Law & Justice,Core Client,Department of Education and Training,test,1234567890,Sydney ,Tester,Auto
RegressionSet2_MedicalReserchPP,Medical Research PP,,Department of Education and Training,test,1234567890,Sydney ,Tester,Auto
RegressionSet2_NSEP,NSEP,,Department of Justice and Community Safety,test,1234567890,Sydney ,Tester,Auto
RegressionSet2_PCP,Primary Care Partnership,,Department of Transport,test,1234567890,Sydney ,Tester,Auto
RegressionSet2_PropertyPlanning,Property & Planning,Core Client,Department of Premier and Cabinet,test,1234567890,Sydney ,Tester,Auto
RegressionSet2_PublicHospital,Public Hospital,Core Client,Department of Transport,test,1234567890,Sydney ,Tester,Auto
RegressionSet2_RuralGP,Rural GP,,Department of Education and Training,test,1234567890,Sydney ,Tester,Auto
RegressionSet2_SchoolCouncils,School Councils,,Department of Health,test,1234567890,Sydney ,Tester,Auto
RegressionSet2_SpecialistAgencie,Specialist Agencies,Fund,Department of Education and Training,test,1234567890,Sydney ,Tester,Auto
RegressionSet2_SpecialistAgenciesPP,Specialist Agencies PP,,Department of Education and Training,test,1234567890,Sydney ,Tester,Auto
RegressionSet2_TransportAndVehicle,Transport & Vehicles,VicFleet,Department of Transport,test,1234567890,Sydney ,Tester,Auto
RegressionSet2_Vicfleet,VicFleet,,Department of Transport,test,1234567890,Sydney ,Tester,Auto
